loadkeys de; passwd

ip -c a

iwctl # für wlan verbidung

lsblk

wipefs -a /dev/nvme*

pacman -S git

git clone https://gitlab.gwdg.de/sherzog3/arch-install.git/

##################Partitionen anlegen##################
gdisk /dev/nvme0n1

=> choose n
Enter
Enter
+500M
ef00

=> choose n
Enter
Enter
+460G
Enter

=> choose w
Enter
#######################################################

gdisk /dev/nvme1n1

=> choose n
Enter
Enter
+940G
Enter

=> choose w
Enter
